module bank-api

require (
	github.com/gin-contrib/sse v0.0.0-20170109093832-22d885f9ecc7 // indirect
	github.com/gin-gonic/gin v1.3.0 // indirect
	github.com/go-sql-driver/mysql v1.4.1 // indirect
	github.com/golang/protobuf v1.2.0 // indirect
	github.com/mattn/go-isatty v0.0.4 // indirect
	github.com/ugorji/go/codec v0.0.0-20181127175209-856da096dbdf // indirect
	gopkg.in/go-playground/validator.v8 v8.18.2 // indirect
	gopkg.in/yaml.v2 v2.2.2 // indirect
)
